Data Description
…
grouped_Batting <- Batting %>% 
  group_by(yearID) %>% 
  summarize(total_HR = sum(HR),
            total_SO = sum(SO))

grouped_Batting %>% 
  arrange(desc(yearID))

# A tibble: 151 × 3
   yearID total_HR total_SO
    <int>    <int>    <int>
 1   2021     5944    42145
 2   2020     2304    15586
 3   2019     6776    42823
 4   2018     5585    41207
 5   2017     6105    40104
 6   2016     5610    38982
 7   2015     4909    37446
 8   2014     4186    37441
 9   2013     4661    36710
10   2012     4934    36426
# … with 141 more rows
…
