Problem Set 1
…
── Attaching packages ─────────────────────────────────────── tidyverse 1.3.2 ──
✔ ggplot2 3.3.6     ✔ purrr   0.3.4
✔ tibble  3.1.8     ✔ dplyr   1.0.9
✔ tidyr   1.2.0     ✔ stringr 1.4.1
✔ readr   2.1.2     ✔ forcats 0.5.2
── Conflicts ────────────────────────────────────────── tidyverse_conflicts() ──
✖ dplyr::filter() masks stats::filter()
✖ dplyr::lag()    masks stats::lag()

babynames

# A tibble: 1,924,665 × 5
    year sex   name          n   prop
   <dbl> <chr> <chr>     <int>  <dbl>
 1  1880 F     Mary       7065 0.0724
 2  1880 F     Anna       2604 0.0267
 3  1880 F     Emma       2003 0.0205
 4  1880 F     Elizabeth  1939 0.0199
 5  1880 F     Minnie     1746 0.0179
 6  1880 F     Margaret   1578 0.0162
 7  1880 F     Ida        1472 0.0151
 8  1880 F     Alice      1414 0.0145
 9  1880 F     Bertha     1320 0.0135
10  1880 F     Sarah      1288 0.0132
# … with 1,924,655 more rows
…
# write your code here! 
total_girls <- babynames %>% 
  filter(sex == "F" & year == 2017) %>%
  select(n) %>% 
  sum()

girl_babynames <- babynames %>% 
  filter(sex == "F" & year == 2017) %>%
  mutate(percnt = 100*(n / total_girls)) %>%
  arrange(desc(percnt))

babynames

# A tibble: 1,924,665 × 5
    year sex   name          n   prop
   <dbl> <chr> <chr>     <int>  <dbl>
 1  1880 F     Mary       7065 0.0724
 2  1880 F     Anna       2604 0.0267
 3  1880 F     Emma       2003 0.0205
 4  1880 F     Elizabeth  1939 0.0199
 5  1880 F     Minnie     1746 0.0179
 6  1880 F     Margaret   1578 0.0162
 7  1880 F     Ida        1472 0.0151
 8  1880 F     Alice      1414 0.0145
 9  1880 F     Bertha     1320 0.0135
10  1880 F     Sarah      1288 0.0132
# … with 1,924,655 more rows
…
Question 5

Part A

Find the most common name for boys by year between 1980-2017. [Hint: you’ll want to first group_by(year). Once you’ve got all the right conditions, you’ll get a table with a lot of data. You only want to keep just the 1st row of each grouped-year’s data, so add %>% slice(1).]

# write your code here! 
babynames %>% 
  group_by(year) %>% 
  filter(sex=="M") %>%
  arrange(desc(n)) %>% 
  slice(1)

# A tibble: 138 × 5
# Groups:   year [138]
    year sex   name      n   prop
   <dbl> <chr> <chr> <int>  <dbl>
 1  1880 M     John   9655 0.0815
 2  1881 M     John   8769 0.0810
 3  1882 M     John   9557 0.0783
 4  1883 M     John   8894 0.0791
 5  1884 M     John   9388 0.0765
 6  1885 M     John   8756 0.0755
 7  1886 M     John   9026 0.0758
 8  1887 M     John   8110 0.0742
 9  1888 M     John   9247 0.0712
10  1889 M     John   8548 0.0718
# … with 128 more rows

Part B

Now do the same for girls.

# write your code here! 
babynames %>% 
  group_by(year) %>% 
  filter(sex=="F") %>%
  arrange(desc(n)) %>% 
  slice(1)

# A tibble: 138 × 5
# Groups:   year [138]
    year sex   name      n   prop
   <dbl> <chr> <chr> <int>  <dbl>
 1  1880 F     Mary   7065 0.0724
 2  1881 F     Mary   6919 0.0700
 3  1882 F     Mary   8148 0.0704
 4  1883 F     Mary   8012 0.0667
 5  1884 F     Mary   9217 0.0670
 6  1885 F     Mary   9128 0.0643
 7  1886 F     Mary   9889 0.0643
 8  1887 F     Mary   9888 0.0636
 9  1888 F     Mary  11754 0.0620
10  1889 F     Mary  11648 0.0616
# … with 128 more rows
…
