Problem Set 4
…
# run or edit this chunk
heightwages <- read_csv("http://metricsf22.classes.ryansafner.com/files/data/heightwages.csv")

New names:
Rows: 12686 Columns: 22
── Column specification
──────────────────────────────────────────────────────── Delimiter: "," dbl
(22): ...1, male, white, black, hispanic, mompro2, poppro2, siblings, no...
ℹ Use `spec()` to retrieve the full column specification for this data. ℹ
Specify the column types or set `show_col_types = FALSE` to quiet this message.
• `` -> `...1`

heightwages

# A tibble: 12,686 × 22
    ...1  male white black hispanic mompro2 poppro2 siblings norest96 norcen96
   <dbl> <dbl> <dbl> <dbl>    <dbl>   <dbl>   <dbl>    <dbl>    <dbl>    <dbl>
 1     1     0     1     0        0       0       0        1       NA       NA
 2     2     0     1     0        0       0       0        8        1        0
 3     3     0     1     0        0       0       0        3        0        0
 4     4     0     1     0        0       0       0        3        0        0
 5     5     1     1     0        0       0       0        1       NA       NA
 6     6     1     1     0        0       0       0        1        0        1
 7     7     1     1     0        0       0       0        1        1        0
 8     8     0     1     0        0       1       0        7        1        0
 9     9     1     1     0        0       0       0        4        1        0
10    10     0     1     0        0       0       0        3       NA       NA
# … with 12,676 more rows, and 12 more variables: south96 <dbl>, west96 <dbl>,
#   height81 <dbl>, height85 <dbl>, esteem80 <dbl>, athlets <dbl>,
#   wage96 <dbl>, hgc96 <dbl>, daded79 <dbl>, momed79 <dbl>, age <dbl>,
#   clubnum <dbl>
…
