Problem Set 3
…
# save our simulations as an object (I called it "sims")
sims <- mlbattend %>% # "data" here is whatever you named your dataframe!
  specify(runs_scored ~ attend_mil) %>% # replacing y and x with your variable names
  hypothesize(null = "independence") %>% # H_0 is that slope is 0, x and y are independent
  generate(reps = 1000,
           type = "permute") %>% # make 1000 samples assuming H_0 is true
  calculate(stat = "slope") # estimate slope in each sample

# look at it
sims

Response: runs_scored (numeric)
Explanatory: attend_mil (numeric)
Null Hypothesis: independence
# A tibble: 1,000 × 2
   replicate     stat
       <int>    <dbl>
 1         1 -10.2   
 2         2  -0.0439
 3         3   4.60  
 4         4  -2.44  
 5         5   6.68  
 6         6   3.67  
 7         7   8.41  
 8         8  -5.59  
 9         9   0.688 
10        10   1.07  
# … with 990 more rows
…
